…
#groups data based on the diagnosis variable
  group_by(diagnosis) %>%
  
#produces an additional variable with 3 possible categories as the observations based on area_mean
  mutate(relative_tumor_size = case_when(area_mean < 650 ~ "small",
                                 area_mean < 1000 ~ "medium",
                                 TRUE ~ "large")) %>%
  
#only provides a tibble with the desired varibles
  select(ID,diagnosis,area_mean,relative_tumor_size,radius_mean:perimeter_mean,smoothness_mean:fractal_dimension_mean))
```

    ## # A tibble: 569 × 13
    ## # Groups:   diagnosis [2]
    ##          ID diagnosis area_mean relative_tumor_size radius_mean texture_mean
    ##       <dbl> <chr>         <dbl> <chr>                     <dbl>        <dbl>
    ##  1   842302 M             1001  large                      18.0         10.4
    ##  2   842517 M             1326  large                      20.6         17.8
    ##  3 84300903 M             1203  large                      19.7         21.2
    ##  4 84348301 M              386. small                      11.4         20.4
    ##  5 84358402 M             1297  large                      20.3         14.3
    ##  6   843786 M              477. small                      12.4         15.7
    ##  7   844359 M             1040  large                      18.2         20.0
    ##  8 84458202 M              578. small                      13.7         20.8
    ##  9   844981 M              520. small                      13           21.8
    ## 10 84501001 M              476. small                      12.5         24.0
    ## # … with 559 more rows, and 7 more variables: perimeter_mean <dbl>,
    ## #   smoothness_mean <dbl>, compactness_mean <dbl>, concavity_mean <dbl>,
    ## #   concave_points_mean <dbl>, symmetry_mean <dbl>,
    ## #   fractal_dimension_mean <dbl>
…
